<svg width="48" height="48" viewBox="0 0 48 48" fill="none" xmlns="http://www.w3.org/2000/svg">
<path d="M40.404 37.11C38.274 33.678 33.585 30 24 30C14.415 30 9.72901 33.675 7.59601 37.11C9.56126 39.5737 12.0568 41.5626 14.8968 42.9286C17.7369 44.2946 20.8485 45.0027 24 45C27.1515 45.0027 30.2631 44.2946 33.1032 42.9286C35.9433 41.5626 38.4388 39.5737 40.404 37.11Z" fill="white"/>
<path fill-rule="evenodd" clip-rule="evenodd" d="M24 27C26.3869 27 28.6761 26.0518 30.364 24.364C32.0518 22.6761 33 20.3869 33 18C33 15.6131 32.0518 13.3239 30.364 11.636C28.6761 9.94821 26.3869 9 24 9C21.6131 9 19.3239 9.94821 17.636 11.636C15.9482 13.3239 15 15.6131 15 18C15 20.3869 15.9482 22.6761 17.636 24.364C19.3239 26.0518 21.6131 27 24 27Z" fill="white"/>
<path fill-rule="evenodd" clip-rule="evenodd" d="M24 3C18.4305 3 13.089 5.21249 9.15076 9.15076C5.21249 13.089 3 18.4305 3 24C3 29.5695 5.21249 34.911 9.15076 38.8492C13.089 42.7875 18.4305 45 24 45C29.5695 45 34.911 42.7875 38.8492 38.8492C42.7875 34.911 45 29.5695 45 24C45 18.4305 42.7875 13.089 38.8492 9.15076C34.911 5.21249 29.5695 3 24 3ZM0 24C0 17.6348 2.52856 11.5303 7.02944 7.02944C11.5303 2.52856 17.6348 0 24 0C30.3652 0 36.4697 2.52856 40.9706 7.02944C45.4714 11.5303 48 17.6348 48 24C48 30.3652 45.4714 36.4697 40.9706 40.9706C36.4697 45.4714 30.3652 48 24 48C17.6348 48 11.5303 45.4714 7.02944 40.9706C2.52856 36.4697 0 30.3652 0 24Z" fill="white"/>
</svg>
